client,1,pass1
client,2,pass2
client,3,pass3
client,4,pass4
client,5,pass5
client,6,pass6
client,7,pass7
client,8,pass8
client,9,pass9
client,10,pass10
claim,7,4,2000,Theft
payment,7,4,2000
claim,2,7,1000,Theft
payment,9,1,1500
payment,7,2,1500
payment,5,6,600
payment,9,7,800
claim,5,6,600,Theft
payment,6,9,1100
claim,5,9,500,Theft
payment,6,1,1900
payment,1,6,1100
payment,6,8,1000
payment,5,9,400
claim,2,1,1300,Theft
claim,8,4,1400,Accident
claim,5,8,1000,Theft
claim,6,2,1900,Theft
claim,5,6,1100,Theft
payment,1,5,500
claim,2,9,1500,Theft
payment,9,1,1200
claim,9,7,1900,Theft
payment,2,1,400
payment,3,1,400
claim,6,9,800,Theft
payment,5,4,500
claim,8,1,700,Accident
payment,1,8,1700
payment,2,8,800